{ 
"queries": 
 [ 
  { 
   "dataset":"TP_CLINOCONTACTAR", 
   "query": 
    "SELECT DISTINCT CODUNICOCLI 
    FROM   MM_NUMEROSRIESGOSOS 
    WHERE  CODUNICOCLI IS NOT NULL 
    AND    TRIM(TELEFONO) IS NULL", 
   "saveAsTable":true, 
   "tableName":"TP_CLINOCONTACTAR", 
   "databaseName":"default", 
   "mode":"overwrite" 
  }, 
  { 
   "dataset":"TP_TELFNOCONTACTAR", 
   "query": 
    "SELECT DISTINCT TELEFONO 
    FROM   MM_NUMEROSRIESGOSOS 
    WHERE  CODUNICOCLI IS NULL 
    AND    TRIM(TELEFONO) IS NOT NULL", 
   "saveAsTable":true, 
   "tableName":"TP_TELFNOCONTACTAR", 
   "databaseName":"default", 
   "mode":"overwrite" 
  },
  { 
   "dataset":"TP_RELACIONNOCONTACTAR", 
   "query": 
    "SELECT DISTINCT CODUNICOCLI, TELEFONO
    FROM   MM_NUMEROSRIESGOSOS
    WHERE  CODUNICOCLI IS NOT NULL
    AND    TRIM(TELEFONO) IS NOT NULL", 
   "saveAsTable":true, 
   "tableName":"TP_RELACIONNOCONTACTAR", 
   "databaseName":"default", 
   "mode":"overwrite" 
  },
  { 
   "dataset":"TP_MOVILMASDE2", 
   "query": 
    "SELECT A.TELEFONO, COUNT(DISTINCT A.CODUNICOCLI) CANT
    FROM   TP_VARTELEFONO A
    WHERE  A.V_TIPTEL = 1
    AND V_TIPESTADO <> 3
    GROUP  BY A.TELEFONO
    HAVING COUNT(DISTINCT A.CODUNICOCLI) > 2", 
   "saveAsTable":true, 
   "tableName":"TP_MOVILMASDE2", 
   "databaseName":"default", 
   "mode":"overwrite" 
  },
  { 
   "dataset":"TP_NOMARCAR", 
   "query": 
    "SELECT CODUNICOCLI, TELEFONO
    FROM(
        SELECT  A.CODUNICOCLI,
                A.TELEFONO,
                A.V_TIPESTADO,
                A.V_FECRANKING,
                ROW_NUMBER() OVER(PARTITION BY A.TELEFONO ORDER BY A.V_FECRANKING DESC) POS
        FROM   TP_VARTELEFONO A
        JOIN   TP_MOVILMASDE2 B ON A.TELEFONO = B.TELEFONO
        WHERE  B.CANT <= 3
    )
   WHERE  POS = 1", 
   "saveAsTable":true, 
   "tableName":"TP_NOMARCAR", 
   "databaseName":"default", 
   "mode":"overwrite" 
  },
  { 
   "dataset":"TP_MARCAFLG", 
   "query": 
    "SELECT A.CODUNICOCLI, A.TELEFONO
    FROM   TP_VARTELEFONO A
    JOIN   TP_MOVILMASDE2 B
        ON A.TELEFONO = B.TELEFONO
    MINUS
    SELECT CODUNICOCLI, TELEFONO
    FROM TP_NOMARCAR", 
   "saveAsTable":true, 
   "tableName":"TP_MARCAFLG", 
   "databaseName":"default", 
   "mode":"overwrite" 
  },
  { 
   "dataset":"TP_DOMMASDE10", 
   "query": 
    "SELECT A.TELEFONO, COUNT(DISTINCT A.CODUNICOCLI) CANT
    FROM TP_VARTELEFONO A
     WHERE  A.V_TIPTEL = 2
     AND A.V_TIPESTADO  <> 3
    GROUP  BY A.TELEFONO
    HAVING COUNT(DISTINCT A.CODUNICOCLI) > 19", 
   "saveAsTable":true, 
   "tableName":"TP_DOMMASDE10", 
   "databaseName":"default", 
   "mode":"overwrite" 
  },
  { 
   "dataset":"TP_CORMASDE8", 
   "query": 
    "SELECT A.TELEFONO, COUNT(DISTINCT A.CODUNICOCLI) CANT
    FROM  TP_VARTELEFONO A
    WHERE  A.V_TIPTEL = 4
       AND A.V_TIPESTADO <> 3
    GROUP  BY A.TELEFONO
    HAVING COUNT(DISTINCT A.CODUNICOCLI) > 19", 
   "saveAsTable":true, 
   "tableName":"TP_CORMASDE8", 
   "databaseName":"default", 
   "mode":"overwrite" 
  },
  { 
   "dataset":"TP_EMASDE6", 
   "query": 
    "SELECT A.TELEFONO, COUNT(DISTINCT A.CODUNICOCLI) CANT
    FROM  TP_VARTELEFONO A
    WHERE  A.V_TIPTEL = 3
       AND A.V_TIPESTADO <> 3
    GROUP  BY A.TELEFONO
    HAVING COUNT(DISTINCT A.CODUNICOCLI) > 6", 
   "saveAsTable":true, 
   "tableName":"TP_EMASDE6", 
   "databaseName":"default", 
   "mode":"overwrite" 
  },
  { 
   "dataset":"TP_OMASDE16", 
   "query": 
    "SELECT A.TELEFONO, COUNT(DISTINCT A.CODUNICOCLI) CANT
    FROM TP_VARTELEFONO A
    WHERE  A.V_TIPTEL  = 5
     AND A.V_TIPESTADO  <> 3
    GROUP  BY A.TELEFONO
    HAVING COUNT(DISTINCT A.CODUNICOCLI) > 16", 
   "saveAsTable":true, 
   "tableName":"TP_OMASDE16", 
   "databaseName":"default", 
   "mode":"overwrite" 
  },
  { 
   "dataset":"1_INSERT_INTO", 
   "query": 
    "select 2154140 as TELEFONO", 
   "saveAsTable":false,
   "insertInto":true,
   "tableName":"TP_TELFNOCONTACTAR", 
   "databaseName":"default"
  },
  { 
   "dataset":"2_INSERT_INTO", 
   "query": 
    "select 043351423 as TELEFONO", 
   "saveAsTable":false,
   "insertInto":true,
   "tableName":"TP_TELFNOCONTACTAR", 
   "databaseName":"default"
  },
  { 
   "dataset":"3_INSERT_INTO", 
   "query": 
    "select 4766647 as TELEFONO", 
   "saveAsTable":false,
   "insertInto":true,
   "tableName":"TP_TELFNOCONTACTAR", 
   "databaseName":"default"
  },
  { 
   "dataset":"4_INSERT_INTO", 
   "query": 
    "select 6546404 as TELEFONO", 
   "saveAsTable":false,
   "insertInto":true,
   "tableName":"TP_TELFNOCONTACTAR", 
   "databaseName":"default"
  },
  {
   "dataset":"1_INSERT_INTO_TP_VARTELEFONO",
   "query":"SELECT A.CODUNICOCLI,
            A.TELEFONO,
            A.V_TIPTEL,
            A.FECORIGEN,
            A.FECACTUALIZACION,
            A.FUENTEACTUAL,
            A.V_FECRANKING,
            A.FUENTERANKING,
            CASE WHEN B.CODUNICOCLI IS NOT NULL THEN 4 ELSE A.V_TIPESTADO END AS V_TIPESTADO,
            FECESTADO,
            FUENTEESTADO,
            A.V_PESOFUENTE,
            A.V_VIGENTE
            FROM TP_VARTELEFONO A LEFT OUTER JOIN TP_CLINOCONTACTAR B
            ON (A.CODUNICOCLI = B.CODUNICOCLI)",
   "saveAsTable":true,
   "insertInto":false,
   "tableName":"UPDATED1_TP_VARTELEFONO",
   "databaseName":"default",
   "mode":"overwrite"
  },
  {
   "dataset":"1_UPDATED_INTO_TP_VARTELEFONO",
   "query":"SELECT * FROM UPDATED1_TP_VARTELEFONO",
   "saveAsTable":false,
   "insertInto":true,
   "tableName":"TP_VARTELEFONO",
   "databaseName":"default"
  },
  {
   "dataset":"2_INSERT_INTO_TP_VARTELEFONO",
   "query":"SELECT A.CODUNICOCLI,
            A.TELEFONO,
            A.V_TIPTEL,
            A.FECORIGEN,
            A.FECACTUALIZACION,
            A.FUENTEACTUAL,
            A.V_FECRANKING,
            A.FUENTERANKING,
            CASE WHEN B.TELEFONO IS NOT NULL THEN 4 ELSE A.V_TIPESTADO END AS V_TIPESTADO,
            FECESTADO,
            FUENTEESTADO,
            A.V_PESOFUENTE,
            A.V_VIGENTE
            FROM TP_VARTELEFONO A LEFT OUTER JOIN TP_TELFNOCONTACTAR B
            ON (A.TELEFONO = B.TELEFONO)",
   "saveAsTable":true,
   "insertInto":false,
   "tableName":"UPDATED2_TP_VARTELEFONO",
   "databaseName":"default",
   "mode":"overwrite"
  },
  {
   "dataset":"2_UPDATED_INTO_TP_VARTELEFONO",
   "query":"SELECT * FROM UPDATED2_TP_VARTELEFONO",
   "saveAsTable":false,
   "insertInto":true,
   "tableName":"TP_VARTELEFONO",
   "databaseName":"default"
  },
  {
   "dataset":"3_INSERT_INTO_TP_VARTELEFONO",
   "query":"SELECT A.CODUNICOCLI,
            A.TELEFONO,
            A.V_TIPTEL,
            A.FECORIGEN,
            A.FECACTUALIZACION,
            A.FUENTEACTUAL,
            A.V_FECRANKING,
            A.FUENTERANKING,
            CASE WHEN B.CODUNICOCLI IS NOT NULL THEN 4 ELSE A.V_TIPESTADO END AS V_TIPESTADO,
            FECESTADO,
            FUENTEESTADO,
            A.V_PESOFUENTE,
            A.V_VIGENTE
            FROM DEFAULT.TP_VARTELEFONO A LEFT OUTER JOIN DEFAULT.TP_RELACIONNOCONTACTAR B
            ON (A.CODUNICOCLI = B.CODUNICOCLI AND A.TELEFONO = B.TELEFONO)",
   "saveAsTable":true,
   "insertInto":false,
   "tableName":"UPDATED3_TP_VARTELEFONO",
   "databaseName":"default",
   "mode":"overwrite"
  },
  {
   "dataset":"3_UPDATED_INTO_TP_VARTELEFONO",
   "query":"SELECT * FROM UPDATED3_TP_VARTELEFONO",
   "saveAsTable":false,
   "insertInto":true,
   "tableName":"TP_VARTELEFONO",
   "databaseName":"default"
  },
  {
   "dataset":"update4_subquery_A",
   "query":"SELECT DISTINCT CODUNICOCLI, TELEFONO FROM DEFAULT.TP_MARCAFLG",
   "saveAsTable":false
  },
  {
   "dataset":"4_INSERT_INTO_TP_VARTELEFONO",
   "query":"SELECT A.CODUNICOCLI,
            A.TELEFONO,
            A.V_TIPTEL,
            A.FECORIGEN,
            A.FECACTUALIZACION,
            A.FUENTEACTUAL,
            A.V_FECRANKING,
            A.FUENTERANKING,
            CASE WHEN B.CODUNICOCLI IS NOT NULL THEN 4 ELSE A.V_TIPESTADO END AS V_TIPESTADO,
            FECESTADO,
            FUENTEESTADO,
            A.V_PESOFUENTE,
            A.V_VIGENTE
            FROM TP_VARTELEFONO A LEFT OUTER JOIN update4_subquery_A B
            ON (A.CODUNICOCLI = B.CODUNICOCLI AND A.TELEFONO = B.TELEFONO)",
   "saveAsTable":true,
   "insertInto":false,
   "tableName":"UPDATED4_TP_VARTELEFONO",
   "databaseName":"default",
   "mode":"overwrite"
  },
  {
   "dataset":"4_UPDATED_INTO_TP_VARTELEFONO",
   "query":"SELECT * FROM UPDATED4_TP_VARTELEFONO",
   "saveAsTable":false,
   "insertInto":true,
   "tableName":"TP_VARTELEFONO",
   "databaseName":"default"
  },
  {
   "dataset":"5_INSERT_INTO_TP_VARTELEFONO",
   "query":"SELECT A.CODUNICOCLI,
            A.TELEFONO,
            A.V_TIPTEL,
            A.FECORIGEN,
            A.FECACTUALIZACION,
            A.FUENTEACTUAL,
            A.V_FECRANKING,
            A.FUENTERANKING,
            CASE WHEN B.TELEFONO IS NOT NULL THEN 4 ELSE A.V_TIPESTADO END AS V_TIPESTADO,
            FECESTADO,
            FUENTEESTADO,
            A.V_PESOFUENTE,
            A.V_VIGENTE
            FROM TP_VARTELEFONO A LEFT OUTER JOIN DEFAULT.TP_DOMMASDE10 B
            ON (A.TELEFONO = B.TELEFONO)",
   "saveAsTable":true,
   "insertInto":false,
   "tableName":"UPDATED5_TP_VARTELEFONO",
   "databaseName":"default",
   "mode":"overwrite"
  },
  {
   "dataset":"5_UPDATED_INTO_TP_VARTELEFONO",
   "query":"SELECT * FROM UPDATED5_TP_VARTELEFONO",
   "saveAsTable":false,
   "insertInto":true,
   "tableName":"TP_VARTELEFONO",
   "databaseName":"default"
  },
  {
   "dataset":"6_INSERT_INTO_TP_VARTELEFONO",
   "query":"SELECT A.CODUNICOCLI,
            A.TELEFONO,
            A.V_TIPTEL,
            A.FECORIGEN,
            A.FECACTUALIZACION,
            A.FUENTEACTUAL,
            A.V_FECRANKING,
            A.FUENTERANKING,
            CASE WHEN B.TELEFONO IS NOT NULL THEN 4 ELSE A.V_TIPESTADO END AS V_TIPESTADO,
            FECESTADO,
            FUENTEESTADO,
            A.V_PESOFUENTE,
            A.V_VIGENTE
            FROM TP_VARTELEFONO A LEFT OUTER JOIN DEFAULT.TP_CORMASDE8 B
            ON (A.TELEFONO = B.TELEFONO)",
   "saveAsTable":true,
   "insertInto":false,
   "tableName":"UPDATED6_TP_VARTELEFONO",
   "databaseName":"default",
   "mode":"overwrite"
  },
  {
   "dataset":"6_UPDATED_INTO_TP_VARTELEFONO",
   "query":"SELECT * FROM UPDATED6_TP_VARTELEFONO",
   "saveAsTable":false,
   "insertInto":true,
   "tableName":"TP_VARTELEFONO",
   "databaseName":"default"
  },
  {
   "dataset":"7_INSERT_INTO_TP_VARTELEFONO",
   "query":"SELECT A.CODUNICOCLI,
            A.TELEFONO,
            A.V_TIPTEL,
            A.FECORIGEN,
            A.FECACTUALIZACION,
            A.FUENTEACTUAL,
            A.V_FECRANKING,
            A.FUENTERANKING,
            CASE WHEN B.TELEFONO IS NOT NULL THEN 4 ELSE A.V_TIPESTADO END AS V_TIPESTADO,
            FECESTADO,
            FUENTEESTADO,
            A.V_PESOFUENTE,
            A.V_VIGENTE
            FROM TP_VARTELEFONO A LEFT OUTER JOIN DEFAULT.TP_EMASDE6 B
            ON (A.TELEFONO = B.TELEFONO)",
   "saveAsTable":true,
   "insertInto":false,
   "tableName":"UPDATED7_TP_VARTELEFONO",
   "databaseName":"default",
   "mode":"overwrite"
  },
  {
   "dataset":"7_UPDATED_INTO_TP_VARTELEFONO",
   "query":"SELECT * FROM UPDATED7_TP_VARTELEFONO",
   "saveAsTable":false,
   "insertInto":true,
   "tableName":"TP_VARTELEFONO",
   "databaseName":"default"
  },
  {
   "dataset":"8_INSERT_INTO_TP_VARTELEFONO",
   "query":"SELECT A.CODUNICOCLI,
            A.TELEFONO,
            A.V_TIPTEL,
            A.FECORIGEN,
            A.FECACTUALIZACION,
            A.FUENTEACTUAL,
            A.V_FECRANKING,
            A.FUENTERANKING,
            CASE WHEN B.TELEFONO IS NOT NULL THEN 4 ELSE A.V_TIPESTADO END AS V_TIPESTADO,
            FECESTADO,
            FUENTEESTADO,
            A.V_PESOFUENTE,
            A.V_VIGENTE
            FROM TP_VARTELEFONO A LEFT OUTER JOIN DEFAULT.TP_OMASDE16 B
            ON (A.TELEFONO = B.TELEFONO)",
   "saveAsTable":true,
   "insertInto":false,
   "tableName":"UPDATED8_TP_VARTELEFONO",
   "databaseName":"default",
   "mode":"overwrite"
  },
  {
   "dataset":"8_UPDATED_INTO_TP_VARTELEFONO",
   "query":"SELECT * FROM UPDATED8_TP_VARTELEFONO",
   "saveAsTable":false,
   "insertInto":true,
   "tableName":"TP_VARTELEFONO",
   "databaseName":"default"
  }
] 
}