{
"queries":
[
{
"dataset":"temporal_query1",
"query":"SELECT B.TELEFONO, OPERADORA OPERADOR, TRUNC(FECVERIFICACION) FECVEROPERADOR
        FROM TP_ENVIADOS_SHEN A
        JOIN MS_TELEFONOCONTACTO B
            ON (SUBSTR(CODUNICOCLI,5,8) = DOCUMENTO AND SUBSTR(A.TELEFONO,1,6) = SUBSTR(B.TELEFONO,1,6))
        WHERE OPERADORA IN ('MOVISTAR', 'CLARO', 'BITEL', 'ENTEL')
        UNION
        SELECT CELULAR, CASE WHEN OPERADOR = 'VIETTEL' THEN 'BITEL' ELSE OPERADOR END OPERADOR, TO_DATE('01/01/2017')
        FROM ME_REPORTE_SMS
        WHERE OPERADOR IS NOT NULL AND OPERADOR NOT IN ('OTROS', 'NEXTEL','WINNER')
        GROUP BY CELULAR, CASE WHEN OPERADOR = 'VIETTEL' THEN 'BITEL' ELSE OPERADOR END",
"saveAsTable":false,

},
{
"dataset":"TP_OPERADOR_TELEFONO",
"query":"SELECT DISTINCT TELEFONO,
            MIN(operador) OPERADOR,
            max(FECVEROPERADOR) FECVEROPERADOR
        FROM temporal_query1
        GROUP BY TELEFONO",
"saveAsTable":true,
"tableName":"TP_OPERADOR_TELEFONO",
"databaseName":"default",
"mode":"overwrite"

},
{
"dataset":"update_TP_BCTELEFONO_1",
"query":"SELECT
            CODUNICOCLI,
            CODCLAVECIC,
            CODINTERNOCOMPUTACIONAL,
            TELEFONO,
            V_TIPTEL,
            FECORIGEN,
            FECACTUALIZACION,
            FUENTEACTUAL,
            V_FECRANKING,
            FUENTERANKING,
            V_TIPESTADO,
            FECESTADO,
            FUENTEESTADO,
            RANKING,
            FLGINDECOPI,
            FLGRECLAMO,
            FLGROBINSON,
            FLGVIGENTE,
            FLGLPDP,
            FLGCIF,
            FLGREMIO,
            FLGCLIENTEPYME,
            R1,
            R2,
            RANKINGMOVIL,
            CASE WHEN B.TELEFONO IS NOT NULL THEN B.OPERADOR ELSE A.OPERADOR END AS OPERADOR,
            FECVEROPERADOR,
			RNK
			FROM TP_BCTELEFONO A LEFT OUTER JOIN TP_OPERADOR_TELEFONO B
			ON (A.TELEFONO = B.TELEFONO)",
"saveAsTable":false,

},
{
"dataset":"insertFinal_TP_BCTELEFONO",
"query":"SELECT * FROM update_TP_BCTELEFONO_1",
"saveAsTable":true,
"tableName":"TP_BCTELEFONO",
"databaseName":"default",
"mode":"overwrite"
}
]
}