{  
    "queries": [  
      {  
        "dataset": "insert_Final",  
        "query": "SELECT 202 as ID_FUENTE, 0 as ID_SUBFUENTE, CODUNICOCLI, TELEFONO, 1 as TIPESTADO, MAX(FECDIA) AS FECTRANSACCION
		FROM
		(
			SELECT CODUNICOCLI, TELEFONO, FECDIA
			FROM   TP_RETRO_TRX_HBK
			UNION
			SELECT CODUNICOCLI, TELEFONO, FECDIA
			FROM   TP_RETRO_TRX_AGENTE
			UNION
			SELECT CODUNICOCLI, TELEFONO, FECDIA
			FROM   TP_RETRO_TRX_BPT
			UNION
			SELECT CODUNICOCLI, TELEFONO, FECDIA
			FROM TP_RETRO_TRX_BMO
		)
		GROUP BY CODUNICOCLI, TELEFONO",    
        "insertInto": true ,
				"tableName": "DE_RETROBCT",
				"mode": "append"
      }
    ]  
}  
