{  
    "queries": [  
      {  
        "dataset": "TP_CARGABCT_SININVAL",  
        "query": "SELECT A1.ID_FUENTE, 
                A1.ID_SUBFUENTE, 
                A1.CODUNICOCLI, 
                A1.TIPTELEFONO, 
                A1.TELEFONO, 
                A1.FECORIGEN, 
                A1.FECACTUALIZACION 
        FROM    DE_CARGABCT A1 
        LEFT JOIN MM_TELEFONOINVALIDO A2 
            ON A1.TELEFONO = A2.TELEFONO 
        WHERE A2.TELEFONO IS NULL",  
        "saveAsTable": false 
      },  
      {  
        "dataset": "TP_CARGABCT_SININVAL2",  
        "query": "SELECT  
                A1.ID_FUENTE, 
                A1.ID_SUBFUENTE, 
                A1.CODUNICOCLI, 
                CASE 
                    WHEN A1.TIPTELEFONO = 'M' THEN 1 
                    WHEN A1.TIPTELEFONO = 'D' THEN 2 
                    WHEN A1.TIPTELEFONO = 'E' THEN 3 
                    WHEN A1.TIPTELEFONO = 'C' THEN 4 
                    WHEN A1.TIPTELEFONO = 'O' THEN 5 
                END, 
                A1.TELEFONO, 
                A1.FECORIGEN, 
                A1.FECACTUALIZACION 
        FROM    TP_CARGABCT_SININVAL A1 
        WHERE    A1.TELEFONO NOT LIKE '00000%' 
            AND LENGTH(A1.CODUNICOCLI) = 13",  
        "insertInto": true, 
        "tableName" : "DE_CARGABCT",
        "databaseName": "default",
        "mode": "append" 
      }  
    ]  
}
